<?xml version="1.0" encoding="UTF-8"?>
<grit latest_public_release="0" current_release="1">
  <outputs>
    <output filename="grit/ui_resources.h" type="rc_header" context="default_100_percent">
      <emit emit_type='prepend'></emit>
    </output>
    <output filename="grit/ui_resources_map.cc" type="resource_map_source" context="default_100_percent" />
    <output filename="grit/ui_resources_map.h" type="resource_map_header" context="default_100_percent" />
    <output filename="ui_resources_100_percent.pak" type="data_package" context="default_100_percent" />
    <output filename="ui_resources_200_percent.pak" type="data_package" context="default_200_percent" />
    <output filename="ui_resources_300_percent.pak" type="data_package" context="default_300_percent" />
  </outputs>
  <release seq="1">
    <structures fallback_to_low_resolution="true">
      <!-- KEEP THESE IN ALPHABETICAL ORDER!  DO NOT ADD TO RANDOM PLACES JUST
           BECAUSE YOUR RESOURCES ARE FUNCTIONALLY RELATED OR FALL UNDER THE
           SAME CONDITIONALS. -->
      <if expr="enable_app_list">
        <structure type="chrome_scaled_image" name="IDR_APP_LIST_ITEM_PROGRESS_BACKGROUND" file="common/app_list_progress_bar_background.png" />
        <structure type="chrome_scaled_image" name="IDR_APP_LIST_ITEM_PROGRESS_LEFT" file="common/app_list_progress_bar_left.png" />
        <structure type="chrome_scaled_image" name="IDR_APP_LIST_ITEM_PROGRESS_CENTER" file="common/app_list_progress_bar_center.png" />
        <structure type="chrome_scaled_image" name="IDR_APP_LIST_ITEM_PROGRESS_RIGHT" file="common/app_list_progress_bar_right.png" />
        <structure type="chrome_scaled_image" name="IDR_APP_LIST_TOOLS_HOVER" file="common/app_list_tools_hover.png" />
        <structure type="chrome_scaled_image" name="IDR_APP_LIST_TOOLS_NORMAL" file="common/app_list_tools_normal.png" />
        <structure type="chrome_scaled_image" name="IDR_APP_LIST_TOOLS_PRESSED" file="common/app_list_tools_pressed.png" />
        <structure type="chrome_scaled_image" name="IDR_APP_LIST_FOLDER_BACK_NORMAL" file="common/app_list_folder_back_normal.png" />
        <structure type="chrome_scaled_image" name="IDR_APP_LIST_SPEECH_MIC_ON" file="common/app_list_mic_on.png" />
        <structure type="chrome_scaled_image" name="IDR_APP_LIST_SPEECH_MIC_OFF" file="common/app_list_mic_off.png" />
        <structure type="chrome_scaled_image" name="IDR_APP_LIST_SPEECH_MIC_RECORDING" file="common/app_list_mic_recording.png" />
        <if expr="is_win or desktop_linux">
          <structure type="chrome_scaled_image" name="IDR_APP_LIST_USER_INDICATOR" file="common/app_list_user_indicator.png" />
        </if>
      </if>
      <if expr="toolkit_views">
        <structure type="chrome_scaled_image" name="IDR_APP_TOP_CENTER" file="app_top_center.png" />
        <structure type="chrome_scaled_image" name="IDR_APP_TOP_LEFT" file="app_top_left.png" />
        <structure type="chrome_scaled_image" name="IDR_APP_TOP_RIGHT" file="app_top_right.png" />
      </if>
      <if expr="is_linux and use_aura">
        <structure type="chrome_scaled_image" name="IDR_AURA_CURSOR_BIG_ALIAS" file="common/pointers/alias_big.png" />
        <structure type="chrome_scaled_image" name="IDR_AURA_CURSOR_BIG_CELL" file="common/pointers/cell_big.png" />
        <structure type="chrome_scaled_image" name="IDR_AURA_CURSOR_BIG_COL_RESIZE" file="common/pointers/sb_h_double_arrow_big.png" />
        <structure type="chrome_scaled_image" name="IDR_AURA_CURSOR_BIG_CONTEXT_MENU" file="common/pointers/context_menu_big.png" />
        <structure type="chrome_scaled_image" name="IDR_AURA_CURSOR_BIG_COPY" file="common/pointers/copy_big.png" />
        <structure type="chrome_scaled_image" name="IDR_AURA_CURSOR_BIG_CROSSHAIR" file="common/pointers/crosshair_big.png" />
        <structure type="chrome_scaled_image" name="IDR_AURA_CURSOR_BIG_EAST_RESIZE" file="common/pointers/sb_h_double_arrow_big.png" />
        <structure type="chrome_scaled_image" name="IDR_AURA_CURSOR_BIG_EAST_WEST_RESIZE" file="common/pointers/sb_h_double_arrow_big.png" />
        <structure type="chrome_scaled_image" name="IDR_AURA_CURSOR_BIG_HAND" file="common/pointers/hand2_big.png" />
        <structure type="chrome_scaled_image" name="IDR_AURA_CURSOR_BIG_HELP" file="common/pointers/help_big.png" />
        <structure type="chrome_scaled_image" name="IDR_AURA_CURSOR_BIG_IBEAM" file="common/pointers/xterm_big.png" />
        <structure type="chrome_scaled_image" name="IDR_AURA_CURSOR_BIG_MOVE" file="common/pointers/move_big.png" />
        <structure type="chrome_scaled_image" name="IDR_AURA_CURSOR_BIG_NORTH_EAST_RESIZE" file="common/pointers/top_right_corner_big.png" />
        <structure type="chrome_scaled_image" name="IDR_AURA_CURSOR_BIG_NORTH_EAST_SOUTH_WEST_RESIZE" file="common/pointers/top_right_corner_big.png" />
        <structure type="chrome_scaled_image" name="IDR_AURA_CURSOR_BIG_NORTH_RESIZE" file="common/pointers/sb_v_double_arrow_big.png" />
        <structure type="chrome_scaled_image" name="IDR_AURA_CURSOR_BIG_NORTH_SOUTH_RESIZE" file="common/pointers/sb_v_double_arrow_big.png" />
        <structure type="chrome_scaled_image" name="IDR_AURA_CURSOR_BIG_NORTH_WEST_RESIZE" file="common/pointers/top_left_corner_big.png" />
        <structure type="chrome_scaled_image" name="IDR_AURA_CURSOR_BIG_NORTH_WEST_SOUTH_EAST_RESIZE" file="common/pointers/top_left_corner_big.png" />
        <structure type="chrome_scaled_image" name="IDR_AURA_CURSOR_BIG_NO_DROP" file="common/pointers/nodrop_big.png" />
        <structure type="chrome_scaled_image" name="IDR_AURA_CURSOR_BIG_PTR" file="common/pointers/left_ptr_big.png" />
        <structure type="chrome_scaled_image" name="IDR_AURA_CURSOR_BIG_ROW_RESIZE" file="common/pointers/sb_v_double_arrow_big.png" />
        <structure type="chrome_scaled_image" name="IDR_AURA_CURSOR_BIG_SOUTH_EAST_RESIZE" file="common/pointers/top_left_corner_big.png" />
        <structure type="chrome_scaled_image" name="IDR_AURA_CURSOR_BIG_SOUTH_RESIZE" file="common/pointers/sb_v_double_arrow_big.png" />
        <structure type="chrome_scaled_image" name="IDR_AURA_CURSOR_BIG_SOUTH_WEST_RESIZE" file="common/pointers/top_right_corner_big.png" />
        <structure type="chrome_scaled_image" name="IDR_AURA_CURSOR_BIG_WEST_RESIZE" file="common/pointers/sb_h_double_arrow_big.png" />
        <structure type="chrome_scaled_image" name="IDR_AURA_CURSOR_BIG_XTERM_HORIZ" file="common/pointers/xterm_horiz_big.png" />
        <structure type="chrome_scaled_image" name="IDR_AURA_CURSOR_BIG_ZOOM_IN" file="common/pointers/zoom_in_big.png" />
        <structure type="chrome_scaled_image" name="IDR_AURA_CURSOR_BIG_ZOOM_OUT" file="common/pointers/zoom_out_big.png" />
        <structure type="chrome_scaled_image" name="IDR_AURA_CURSOR_BIG_GRAB" file="common/pointers/fleur_big.png" />
        <structure type="chrome_scaled_image" name="IDR_AURA_CURSOR_BIG_GRABBING" file="common/pointers/hand3_big.png" />
        <structure type="chrome_scaled_image" name="IDR_AURA_CURSOR_ALIAS" file="common/pointers/alias.png" />
        <structure type="chrome_scaled_image" name="IDR_AURA_CURSOR_CELL" file="common/pointers/cell.png" />
        <structure type="chrome_scaled_image" name="IDR_AURA_CURSOR_COL_RESIZE" file="common/pointers/sb_h_double_arrow.png" />
        <structure type="chrome_scaled_image" name="IDR_AURA_CURSOR_CONTEXT_MENU" file="common/pointers/context_menu.png" />
        <structure type="chrome_scaled_image" name="IDR_AURA_CURSOR_COPY" file="common/pointers/copy.png" />
        <structure type="chrome_scaled_image" name="IDR_AURA_CURSOR_CROSSHAIR" file="common/pointers/crosshair.png" />
        <structure type="chrome_scaled_image" name="IDR_AURA_CURSOR_EAST_RESIZE" file="common/pointers/sb_h_double_arrow.png" />
        <structure type="chrome_scaled_image" name="IDR_AURA_CURSOR_EAST_WEST_RESIZE" file="common/pointers/sb_h_double_arrow.png" />
        <structure type="chrome_scaled_image" name="IDR_AURA_CURSOR_HAND" file="common/pointers/hand2.png" />
        <structure type="chrome_scaled_image" name="IDR_AURA_CURSOR_HELP" file="common/pointers/help.png" />
        <structure type="chrome_scaled_image" name="IDR_AURA_CURSOR_IBEAM" file="common/pointers/xterm.png" />
        <structure type="chrome_scaled_image" name="IDR_AURA_CURSOR_MOVE" file="common/pointers/move.png" />
        <structure type="chrome_scaled_image" name="IDR_AURA_CURSOR_NORTH_EAST_RESIZE" file="common/pointers/top_right_corner.png" />
        <structure type="chrome_scaled_image" name="IDR_AURA_CURSOR_NORTH_EAST_SOUTH_WEST_RESIZE" file="common/pointers/top_right_corner.png" />
        <structure type="chrome_scaled_image" name="IDR_AURA_CURSOR_NORTH_RESIZE" file="common/pointers/sb_v_double_arrow.png" />
        <structure type="chrome_scaled_image" name="IDR_AURA_CURSOR_NORTH_SOUTH_RESIZE" file="common/pointers/sb_v_double_arrow.png" />
        <structure type="chrome_scaled_image" name="IDR_AURA_CURSOR_NORTH_WEST_RESIZE" file="common/pointers/top_left_corner.png" />
        <structure type="chrome_scaled_image" name="IDR_AURA_CURSOR_NORTH_WEST_SOUTH_EAST_RESIZE" file="common/pointers/top_left_corner.png" />
        <structure type="chrome_scaled_image" name="IDR_AURA_CURSOR_NO_DROP" file="common/pointers/nodrop.png" />
        <structure type="chrome_scaled_image" name="IDR_AURA_CURSOR_PTR" file="common/pointers/left_ptr.png" />
        <structure type="chrome_scaled_image" name="IDR_AURA_CURSOR_ROW_RESIZE" file="common/pointers/sb_v_double_arrow.png" />
        <structure type="chrome_scaled_image" name="IDR_AURA_CURSOR_SOUTH_EAST_RESIZE" file="common/pointers/top_left_corner.png" />
        <structure type="chrome_scaled_image" name="IDR_AURA_CURSOR_SOUTH_RESIZE" file="common/pointers/sb_v_double_arrow.png" />
        <structure type="chrome_scaled_image" name="IDR_AURA_CURSOR_SOUTH_WEST_RESIZE" file="common/pointers/top_right_corner.png" />
        <structure type="chrome_scaled_image" name="IDR_AURA_CURSOR_WEST_RESIZE" file="common/pointers/sb_h_double_arrow.png" />
        <structure type="chrome_scaled_image" name="IDR_AURA_CURSOR_XTERM_HORIZ" file="common/pointers/xterm_horiz.png" />
        <structure type="chrome_scaled_image" name="IDR_AURA_CURSOR_ZOOM_IN" file="common/pointers/zoom_in.png" />
        <structure type="chrome_scaled_image" name="IDR_AURA_CURSOR_ZOOM_OUT" file="common/pointers/zoom_out.png" />
        <structure type="chrome_scaled_image" name="IDR_AURA_CURSOR_GRAB" file="common/pointers/fleur.png" />
        <structure type="chrome_scaled_image" name="IDR_AURA_CURSOR_GRABBING" file="common/pointers/hand3.png" />
      </if>
      <if expr="toolkit_views">
        <structure type="chrome_scaled_image" name="IDR_AURA_SHADOW_ACTIVE" file="common/window_shadow_active.png" />
        <structure type="chrome_scaled_image" name="IDR_AURA_SHADOW_INACTIVE" file="common/window_shadow_inactive.png" />
      </if>
      <structure type="chrome_scaled_image" name="IDR_BACK_ARROW" file="common/back_arrow.png" />
      <structure type="chrome_scaled_image" name="IDR_FORWARD_ARROW" file="common/forward_arrow.png" />
      <structure type="chrome_scaled_image" name="IDR_BROWSER_ACTION_BADGE_CENTER" file="common/browser_action_badge_center.png" />
      <structure type="chrome_scaled_image" name="IDR_BROWSER_ACTION_BADGE_LEFT" file="common/browser_action_badge_left.png" />
      <structure type="chrome_scaled_image" name="IDR_BROWSER_ACTION_BADGE_RIGHT" file="common/browser_action_badge_right.png" />
      <if expr="toolkit_views">
        <structure type="chrome_scaled_image" name="IDR_BUBBLE_B" file="bubble_bottom.png" />
        <structure type="chrome_scaled_image" name="IDR_BUBBLE_BL" file="bubble_bottom_left.png" />
        <structure type="chrome_scaled_image" name="IDR_BUBBLE_BR" file="bubble_bottom_right.png" />
        <structure type="chrome_scaled_image" name="IDR_BUBBLE_B_ARROW" file="bubble_pointer_bottom.png" />
        <structure type="chrome_scaled_image" name="IDR_BUBBLE_L" file="bubble_left.png" />
        <structure type="chrome_scaled_image" name="IDR_BUBBLE_L_ARROW" file="bubble_pointer_left.png" />
        <structure type="chrome_scaled_image" name="IDR_BUBBLE_R" file="bubble_right.png" />
        <structure type="chrome_scaled_image" name="IDR_BUBBLE_R_ARROW" file="bubble_pointer_right.png" />
        <structure type="chrome_scaled_image" name="IDR_BUBBLE_T" file="bubble_top.png" />
        <structure type="chrome_scaled_image" name="IDR_BUBBLE_TL" file="bubble_top_left.png" />
        <structure type="chrome_scaled_image" name="IDR_BUBBLE_TR" file="bubble_top_right.png" />
        <structure type="chrome_scaled_image" name="IDR_BUBBLE_T_ARROW" file="bubble_pointer_top.png" />
        <structure type="chrome_scaled_image" name="IDR_BUTTON_DISABLED" file="common/button_inactive.png" />
        <structure type="chrome_scaled_image" name="IDR_BUTTON_FOCUSED_HOVER" file="common/button_focused_hover.png" />
        <structure type="chrome_scaled_image" name="IDR_BUTTON_FOCUSED_NORMAL" file="common/button_focused.png" />
        <structure type="chrome_scaled_image" name="IDR_BUTTON_FOCUSED_PRESSED" file="common/button_focused_pressed.png" />
        <structure type="chrome_scaled_image" name="IDR_BUTTON_HOVER" file="common/button_hover.png" />
        <structure type="chrome_scaled_image" name="IDR_BUTTON_NORMAL" file="common/button.png" />
        <structure type="chrome_scaled_image" name="IDR_BUTTON_PRESSED" file="common/button_pressed.png" />
        <structure type="chrome_scaled_image" name="IDR_BLUE_BUTTON_DISABLED" file="common/blue_button_inactive.png" />
        <structure type="chrome_scaled_image" name="IDR_BLUE_BUTTON_FOCUSED_HOVER" file="common/blue_button_focused_hover.png" />
        <structure type="chrome_scaled_image" name="IDR_BLUE_BUTTON_FOCUSED_NORMAL" file="common/blue_button_focused.png" />
        <structure type="chrome_scaled_image" name="IDR_BLUE_BUTTON_FOCUSED_PRESSED" file="common/blue_button_focused_pressed.png" />
        <structure type="chrome_scaled_image" name="IDR_BLUE_BUTTON_HOVER" file="common/blue_button_hover.png" />
        <structure type="chrome_scaled_image" name="IDR_BLUE_BUTTON_NORMAL" file="common/blue_button.png" />
        <structure type="chrome_scaled_image" name="IDR_BLUE_BUTTON_PRESSED" file="common/blue_button_pressed.png" />
        <structure type="chrome_scaled_image" name="IDR_CHECKBOX" file="common/checkbox.png" />
        <structure type="chrome_scaled_image" name="IDR_CHECKBOX_CHECKED" file="common/checkbox_checked.png" />
        <structure type="chrome_scaled_image" name="IDR_CHECKBOX_CHECKED_DISABLED" file="common/checkbox_checked_inactive.png" />
        <structure type="chrome_scaled_image" name="IDR_CHECKBOX_CHECKED_HOVER" file="common/checkbox_checked_hover.png" />
        <structure type="chrome_scaled_image" name="IDR_CHECKBOX_CHECKED_PRESSED" file="common/checkbox_checked_pressed.png" />
        <structure type="chrome_scaled_image" name="IDR_CHECKBOX_DISABLED" file="common/checkbox_inactive.png" />
        <structure type="chrome_scaled_image" name="IDR_CHECKBOX_FOCUSED" file="common/checkbox_focused.png" />
        <structure type="chrome_scaled_image" name="IDR_CHECKBOX_FOCUSED_CHECKED" file="common/checkbox_focused_checked.png" />
        <structure type="chrome_scaled_image" name="IDR_CHECKBOX_FOCUSED_CHECKED_HOVER" file="common/checkbox_focused_checked_hover.png" />
        <structure type="chrome_scaled_image" name="IDR_CHECKBOX_FOCUSED_CHECKED_PRESSED" file="common/checkbox_focused_checked_pressed.png" />
        <structure type="chrome_scaled_image" name="IDR_CHECKBOX_FOCUSED_HOVER" file="common/checkbox_focused_hover.png" />
        <structure type="chrome_scaled_image" name="IDR_CHECKBOX_FOCUSED_PRESSED" file="common/checkbox_focused_pressed.png" />
        <structure type="chrome_scaled_image" name="IDR_CHECKBOX_HOVER" file="common/checkbox_hover.png" />
        <structure type="chrome_scaled_image" name="IDR_CHECKBOX_PRESSED" file="common/checkbox_pressed.png" />
      </if>
      <structure type="chrome_scaled_image" name="IDR_CHECKMARK" file="common/checkmark.png" />
      <if expr="desktop_linux">
        <structure type="chrome_scaled_image" name="IDR_CLOSE" file="linux/linux_close.png" />
      </if>
      <if expr="not desktop_linux and toolkit_views">
        <structure type="chrome_scaled_image" name="IDR_CLOSE" file="close.png" />
      </if>
      <structure type="chrome_scaled_image" name="IDR_CLOSE_2" file="close_2.png" />
      <structure type="chrome_scaled_image" name="IDR_CLOSE_2_H" file="close_2_hover.png" />
      <structure type="chrome_scaled_image" name="IDR_CLOSE_2_MASK" file="close_2_mask.png" />
      <structure type="chrome_scaled_image" name="IDR_CLOSE_2_P" file="close_2_pressed.png" />
      <structure type="chrome_scaled_image" name="IDR_CLOSE_3_MASK" file="common/close_3_mask.png" />
      <structure type="chrome_scaled_image" name="IDR_CLOSE_4_BUTTON" file="common/close_4_button.png" />
      <structure type="chrome_scaled_image" name="IDR_CLOSE_DIALOG" file="close_dialog.png" />
      <structure type="chrome_scaled_image" name="IDR_CLOSE_DIALOG_H" file="close_dialog_hover.png" />
      <structure type="chrome_scaled_image" name="IDR_CLOSE_DIALOG_P" file="close_dialog_pressed.png" />
      <structure type="chrome_scaled_image" name="IDR_DISABLE" file="disable.png" />
      <structure type="chrome_scaled_image" name="IDR_DISABLE_H" file="disable_hover.png" />
      <structure type="chrome_scaled_image" name="IDR_DISABLE_P" file="disable_pressed.png" />

      <if expr="desktop_linux">
        <structure type="chrome_scaled_image" name="IDR_CLOSE_H" file="linux/linux_close_hover.png" />
        <structure type="chrome_scaled_image" name="IDR_CLOSE_P" file="linux/linux_close_pressed.png" />
      </if>
      <if expr="not desktop_linux and toolkit_views">
        <structure type="chrome_scaled_image" name="IDR_CLOSE_H" file="close_hover.png" />
        <structure type="chrome_scaled_image" name="IDR_CLOSE_P" file="close_pressed.png" />
      </if>
      <if expr="toolkit_views">
        <structure type="chrome_scaled_image" name="IDR_COMBOBOX_BUTTON_BOTTOM" file="common/combobox_button_bottom.png" />
        <structure type="chrome_scaled_image" name="IDR_COMBOBOX_BUTTON_H_BOTTOM" file="common/combobox_button_bottom_hover.png" />
        <structure type="chrome_scaled_image" name="IDR_COMBOBOX_BUTTON_P_BOTTOM" file="common/combobox_button_bottom_pressed.png" />
        <structure type="chrome_scaled_image" name="IDR_COMBOBOX_BUTTON_BOTTOM_LEFT" file="common/combobox_button_bottom_left.png" />
        <structure type="chrome_scaled_image" name="IDR_COMBOBOX_BUTTON_H_BOTTOM_LEFT" file="common/combobox_button_bottom_left_hover.png" />
        <structure type="chrome_scaled_image" name="IDR_COMBOBOX_BUTTON_P_BOTTOM_LEFT" file="common/combobox_button_bottom_left_pressed.png" />
        <structure type="chrome_scaled_image" name="IDR_COMBOBOX_BUTTON_BOTTOM_RIGHT" file="common/combobox_button_bottom_right.png" />
        <structure type="chrome_scaled_image" name="IDR_COMBOBOX_BUTTON_H_BOTTOM_RIGHT" file="common/combobox_button_bottom_right_hover.png" />
        <structure type="chrome_scaled_image" name="IDR_COMBOBOX_BUTTON_P_BOTTOM_RIGHT" file="common/combobox_button_bottom_right_pressed.png" />
        <structure type="chrome_scaled_image" name="IDR_COMBOBOX_BUTTON_CENTER" file="common/combobox_button_center.png" />
        <structure type="chrome_scaled_image" name="IDR_COMBOBOX_BUTTON_H_CENTER" file="common/combobox_button_center_hover.png" />
        <structure type="chrome_scaled_image" name="IDR_COMBOBOX_BUTTON_P_CENTER" file="common/combobox_button_center_pressed.png" />
        <structure type="chrome_scaled_image" name="IDR_COMBOBOX_BUTTON_LEFT" file="common/combobox_button_center_left.png" />
        <structure type="chrome_scaled_image" name="IDR_COMBOBOX_BUTTON_H_LEFT" file="common/combobox_button_center_left_hover.png" />
        <structure type="chrome_scaled_image" name="IDR_COMBOBOX_BUTTON_P_LEFT" file="common/combobox_button_center_left_pressed.png" />
        <structure type="chrome_scaled_image" name="IDR_COMBOBOX_BUTTON_RIGHT" file="common/combobox_button_center_right.png" />
        <structure type="chrome_scaled_image" name="IDR_COMBOBOX_BUTTON_H_RIGHT" file="common/combobox_button_center_right_hover.png" />
        <structure type="chrome_scaled_image" name="IDR_COMBOBOX_BUTTON_P_RIGHT" file="common/combobox_button_center_right_pressed.png" />
        <structure type="chrome_scaled_image" name="IDR_COMBOBOX_BUTTON_MENU_BOTTOM" file="common/combobox_button_menu_bottom.png" />
        <structure type="chrome_scaled_image" name="IDR_COMBOBOX_BUTTON_H_MENU_BOTTOM" file="common/combobox_button_menu_bottom_hover.png" />
        <structure type="chrome_scaled_image" name="IDR_COMBOBOX_BUTTON_P_MENU_BOTTOM" file="common/combobox_button_menu_bottom_pressed.png" />
        <structure type="chrome_scaled_image" name="IDR_COMBOBOX_BUTTON_MENU_CENTER" file="common/combobox_button_menu_center.png" />
        <structure type="chrome_scaled_image" name="IDR_COMBOBOX_BUTTON_H_MENU_CENTER" file="common/combobox_button_menu_center_hover.png" />
        <structure type="chrome_scaled_image" name="IDR_COMBOBOX_BUTTON_P_MENU_CENTER" file="common/combobox_button_menu_center_pressed.png" />
        <structure type="chrome_scaled_image" name="IDR_COMBOBOX_BUTTON_MENU_TOP" file="common/combobox_button_menu_top.png" />
        <structure type="chrome_scaled_image" name="IDR_COMBOBOX_BUTTON_H_MENU_TOP" file="common/combobox_button_menu_top_hover.png" />
        <structure type="chrome_scaled_image" name="IDR_COMBOBOX_BUTTON_P_MENU_TOP" file="common/combobox_button_menu_top_pressed.png" />
        <structure type="chrome_scaled_image" name="IDR_COMBOBOX_BUTTON_TOP" file="common/combobox_button_top.png" />
        <structure type="chrome_scaled_image" name="IDR_COMBOBOX_BUTTON_H_TOP" file="common/combobox_button_top_hover.png" />
        <structure type="chrome_scaled_image" name="IDR_COMBOBOX_BUTTON_P_TOP" file="common/combobox_button_top_pressed.png" />
        <structure type="chrome_scaled_image" name="IDR_COMBOBOX_BUTTON_TOP_LEFT" file="common/combobox_button_top_left.png" />
        <structure type="chrome_scaled_image" name="IDR_COMBOBOX_BUTTON_H_TOP_LEFT" file="common/combobox_button_top_left_hover.png" />
        <structure type="chrome_scaled_image" name="IDR_COMBOBOX_BUTTON_P_TOP_LEFT" file="common/combobox_button_top_left_pressed.png" />
        <structure type="chrome_scaled_image" name="IDR_COMBOBOX_BUTTON_TOP_RIGHT" file="common/combobox_button_top_right.png" />
        <structure type="chrome_scaled_image" name="IDR_COMBOBOX_BUTTON_H_TOP_RIGHT" file="common/combobox_button_top_right_hover.png" />
        <structure type="chrome_scaled_image" name="IDR_COMBOBOX_BUTTON_P_TOP_RIGHT" file="common/combobox_button_top_right_pressed.png" />
        <structure type="chrome_scaled_image" name="IDR_COMBOBOX_BUTTON_F_BOTTOM" file="common/combobox_button_bottom_focused.png" />
        <structure type="chrome_scaled_image" name="IDR_COMBOBOX_BUTTON_F_H_BOTTOM" file="common/combobox_button_bottom_focused_hover.png" />
        <structure type="chrome_scaled_image" name="IDR_COMBOBOX_BUTTON_F_P_BOTTOM" file="common/combobox_button_bottom_focused_pressed.png" />
        <structure type="chrome_scaled_image" name="IDR_COMBOBOX_BUTTON_F_BOTTOM_LEFT" file="common/combobox_button_bottom_left_focused.png" />
        <structure type="chrome_scaled_image" name="IDR_COMBOBOX_BUTTON_F_H_BOTTOM_LEFT" file="common/combobox_button_bottom_left_focused_hover.png" />
        <structure type="chrome_scaled_image" name="IDR_COMBOBOX_BUTTON_F_P_BOTTOM_LEFT" file="common/combobox_button_bottom_left_focused_pressed.png" />
        <structure type="chrome_scaled_image" name="IDR_COMBOBOX_BUTTON_F_BOTTOM_RIGHT" file="common/combobox_button_bottom_right_focused.png" />
        <structure type="chrome_scaled_image" name="IDR_COMBOBOX_BUTTON_F_H_BOTTOM_RIGHT" file="common/combobox_button_bottom_right_focused_hover.png" />
        <structure type="chrome_scaled_image" name="IDR_COMBOBOX_BUTTON_F_P_BOTTOM_RIGHT" file="common/combobox_button_bottom_right_focused_pressed.png" />
        <structure type="chrome_scaled_image" name="IDR_COMBOBOX_BUTTON_F_CENTER" file="common/combobox_button_center_focused.png" />
        <structure type="chrome_scaled_image" name="IDR_COMBOBOX_BUTTON_F_H_CENTER" file="common/combobox_button_center_focused_hover.png" />
        <structure type="chrome_scaled_image" name="IDR_COMBOBOX_BUTTON_F_P_CENTER" file="common/combobox_button_center_focused_pressed.png" />
        <structure type="chrome_scaled_image" name="IDR_COMBOBOX_BUTTON_F_LEFT" file="common/combobox_button_center_left_focused.png" />
        <structure type="chrome_scaled_image" name="IDR_COMBOBOX_BUTTON_F_H_LEFT" file="common/combobox_button_center_left_focused_hover.png" />
        <structure type="chrome_scaled_image" name="IDR_COMBOBOX_BUTTON_F_P_LEFT" file="common/combobox_button_center_left_focused_pressed.png" />
        <structure type="chrome_scaled_image" name="IDR_COMBOBOX_BUTTON_F_RIGHT" file="common/combobox_button_center_right_focused.png" />
        <structure type="chrome_scaled_image" name="IDR_COMBOBOX_BUTTON_F_H_RIGHT" file="common/combobox_button_center_right_focused_hover.png" />
        <structure type="chrome_scaled_image" name="IDR_COMBOBOX_BUTTON_F_P_RIGHT" file="common/combobox_button_center_right_focused_pressed.png" />
        <structure type="chrome_scaled_image" name="IDR_COMBOBOX_BUTTON_F_MENU_BOTTOM" file="common/combobox_button_menu_bottom_focused.png" />
        <structure type="chrome_scaled_image" name="IDR_COMBOBOX_BUTTON_F_H_MENU_BOTTOM" file="common/combobox_button_menu_bottom_focused_hover.png" />
        <structure type="chrome_scaled_image" name="IDR_COMBOBOX_BUTTON_F_P_MENU_BOTTOM" file="common/combobox_button_menu_bottom_focused_pressed.png" />
        <structure type="chrome_scaled_image" name="IDR_COMBOBOX_BUTTON_F_MENU_CENTER" file="common/combobox_button_menu_center_focused.png" />
        <structure type="chrome_scaled_image" name="IDR_COMBOBOX_BUTTON_F_H_MENU_CENTER" file="common/combobox_button_menu_center_focused_hover.png" />
        <structure type="chrome_scaled_image" name="IDR_COMBOBOX_BUTTON_F_P_MENU_CENTER" file="common/combobox_button_menu_center_focused_pressed.png" />
        <structure type="chrome_scaled_image" name="IDR_COMBOBOX_BUTTON_F_MENU_TOP" file="common/combobox_button_menu_top_focused.png" />
        <structure type="chrome_scaled_image" name="IDR_COMBOBOX_BUTTON_F_H_MENU_TOP" file="common/combobox_button_menu_top_focused_hover.png" />
        <structure type="chrome_scaled_image" name="IDR_COMBOBOX_BUTTON_F_P_MENU_TOP" file="common/combobox_button_menu_top_focused_pressed.png" />
        <structure type="chrome_scaled_image" name="IDR_COMBOBOX_BUTTON_F_TOP" file="common/combobox_button_top_focused.png" />
        <structure type="chrome_scaled_image" name="IDR_COMBOBOX_BUTTON_F_H_TOP" file="common/combobox_button_top_focused_hover.png" />
        <structure type="chrome_scaled_image" name="IDR_COMBOBOX_BUTTON_F_P_TOP" file="common/combobox_button_top_focused_pressed.png" />
        <structure type="chrome_scaled_image" name="IDR_COMBOBOX_BUTTON_F_TOP_LEFT" file="common/combobox_button_top_left_focused.png" />
        <structure type="chrome_scaled_image" name="IDR_COMBOBOX_BUTTON_F_H_TOP_LEFT" file="common/combobox_button_top_left_focused_hover.png" />
        <structure type="chrome_scaled_image" name="IDR_COMBOBOX_BUTTON_F_P_TOP_LEFT" file="common/combobox_button_top_left_focused_pressed.png" />
        <structure type="chrome_scaled_image" name="IDR_COMBOBOX_BUTTON_F_TOP_RIGHT" file="common/combobox_button_top_right_focused.png" />
        <structure type="chrome_scaled_image" name="IDR_COMBOBOX_BUTTON_F_H_TOP_RIGHT" file="common/combobox_button_top_right_focused_hover.png" />
        <structure type="chrome_scaled_image" name="IDR_COMBOBOX_BUTTON_F_P_TOP_RIGHT" file="common/combobox_button_top_right_focused_pressed.png" />
      </if>
      <if expr="toolkit_views">
        <structure type="chrome_scaled_image" name="IDR_CONTENT_BOTTOM_CENTER" file="content_bottom_center.png" />
        <structure type="chrome_scaled_image" name="IDR_CONTENT_BOTTOM_LEFT_CORNER" file="content_bottom_left_corner.png" />
        <structure type="chrome_scaled_image" name="IDR_CONTENT_BOTTOM_RIGHT_CORNER" file="content_bottom_right_corner.png" />
        <structure type="chrome_scaled_image" name="IDR_CONTENT_LEFT_SIDE" file="content_left_side.png" />
        <structure type="chrome_scaled_image" name="IDR_CONTENT_RIGHT_SIDE" file="content_right_side.png" />
      </if>
      <structure type="chrome_scaled_image" name="IDR_DEFAULT_FAVICON" file="common/default_favicon.png" />
      <structure type="chrome_scaled_image" name="IDR_DEFAULT_FAVICON_32" file="common/default_favicon_32.png" />
      <structure type="chrome_scaled_image" name="IDR_DEFAULT_FAVICON_64" file="common/default_favicon_64.png" />
      <structure type="chrome_scaled_image" name="IDR_EASY_UNLOCK_HARDLOCKED" file="common/easy_unlock_hardlocked.png" />
      <structure type="chrome_scaled_image" name="IDR_EASY_UNLOCK_HARDLOCKED_HOVER" file="common/easy_unlock_hardlocked_hover.png" />
      <structure type="chrome_scaled_image" name="IDR_EASY_UNLOCK_HARDLOCKED_PRESSED" file="common/easy_unlock_hardlocked_pressed.png" />
      <structure type="chrome_scaled_image" name="IDR_EASY_UNLOCK_LOCKED" file="common/easy_unlock_locked.png" />
      <structure type="chrome_scaled_image" name="IDR_EASY_UNLOCK_LOCKED_HOVER" file="common/easy_unlock_locked_hover.png" />
      <structure type="chrome_scaled_image" name="IDR_EASY_UNLOCK_LOCKED_PRESSED" file="common/easy_unlock_locked_pressed.png" />
      <structure type="chrome_scaled_image" name="IDR_EASY_UNLOCK_LOCKED_TO_BE_ACTIVATED" file="common/easy_unlock_locked_to_be_activated.png" />
      <structure type="chrome_scaled_image" name="IDR_EASY_UNLOCK_LOCKED_TO_BE_ACTIVATED_HOVER" file="common/easy_unlock_locked_to_be_activated_hover.png" />
      <structure type="chrome_scaled_image" name="IDR_EASY_UNLOCK_LOCKED_TO_BE_ACTIVATED_PRESSED" file="common/easy_unlock_locked_to_be_activated_pressed.png" />
      <structure type="chrome_scaled_image" name="IDR_EASY_UNLOCK_LOCKED_WITH_PROXIMITY_HINT" file="common/easy_unlock_locked_with_proximity_hint.png" />
      <structure type="chrome_scaled_image" name="IDR_EASY_UNLOCK_LOCKED_WITH_PROXIMITY_HINT_HOVER" file="common/easy_unlock_locked_with_proximity_hint_hover.png" />
      <structure type="chrome_scaled_image" name="IDR_EASY_UNLOCK_LOCKED_WITH_PROXIMITY_HINT_PRESSED" file="common/easy_unlock_locked_with_proximity_hint_pressed.png" />
      <structure type="chrome_scaled_image" name="IDR_EASY_UNLOCK_SPINNER" file="common/easy_unlock_spinner.png" />
      <structure type="chrome_scaled_image" name="IDR_EASY_UNLOCK_UNLOCKED" file="common/easy_unlock_unlocked.png" />
      <structure type="chrome_scaled_image" name="IDR_EASY_UNLOCK_UNLOCKED_HOVER" file="common/easy_unlock_unlocked_hover.png" />
      <structure type="chrome_scaled_image" name="IDR_EASY_UNLOCK_UNLOCKED_PRESSED" file="common/easy_unlock_unlocked_pressed.png" />
      <structure type="chrome_scaled_image" name="IDR_ERROR" file="common/error.png" />
      <structure type="chrome_scaled_image" name="IDR_FOLDER_CLOSED" file="common/folder_closed.png" />
      <structure type="chrome_scaled_image" name="IDR_FOLDER_CLOSED_RTL" file="common/folder_closed_rtl.png" />
      <if expr="toolkit_views">
        <structure type="chrome_scaled_image" name="IDR_FOLDER_OPEN" file="common/folder_open.png" />
        <structure type="chrome_scaled_image" name="IDR_FOLDER_OPEN_RTL" file="common/folder_open_rtl.png" />
        <structure type="chrome_scaled_image" name="IDR_FRAME" file="frame_default.png" />
        <structure type="chrome_scaled_image" name="IDR_FRAME_APP_PANEL" file="frame_app_panel_default.png" />
        <structure type="chrome_scaled_image" name="IDR_FRAME_INACTIVE" file="frame_default_inactive.png" />
      </if>
      <if expr="desktop_linux">
        <structure type="chrome_scaled_image" name="IDR_MAXIMIZE" file="linux/linux_maximize.png" />
        <structure type="chrome_scaled_image" name="IDR_MAXIMIZE_H" file="linux/linux_maximize_hover.png" />
        <structure type="chrome_scaled_image" name="IDR_MAXIMIZE_P" file="linux/linux_maximize_pressed.png" />
      </if>
      <if expr="not desktop_linux and toolkit_views">
        <structure type="chrome_scaled_image" name="IDR_MAXIMIZE" file="maximize.png" />
        <structure type="chrome_scaled_image" name="IDR_MAXIMIZE_H" file="maximize_hover.png" />
        <structure type="chrome_scaled_image" name="IDR_MAXIMIZE_P" file="maximize_pressed.png" />
      </if>
      <if expr="toolkit_views">
        <structure type="chrome_scaled_image" name="IDR_MENU_HIERARCHY_ARROW_DARK_BACKGROUND" file="common/menu_hierarchy_arrow_white.png" />
      </if>
      <if expr="toolkit_views and not is_macosx">
        <structure type="chrome_scaled_image" name="IDR_MENU_HIERARCHY_ARROW" file="common/menu_hierarchy_arrow.png" />
      </if>
      <if expr="is_macosx or is_ios">
        <structure type="chrome_scaled_image" name="IDR_MENU_HIERARCHY_ARROW" file="mac/menu_hierarchy_arrow.png" />
      </if>
      <structure type="chrome_scaled_image" name="IDR_MENU_CHECK_CHECKED" file="common/menu_check.png" />
      <if expr="toolkit_views">
        <structure type="chrome_scaled_image" name="IDR_MENU_CHECK" file="cros/menu_check.png" />
        <structure type="chrome_scaled_image" name="IDR_MENU_CHECK_CHECKED_DARK_BACKGROUND" file="common/menu_check_white.png" />
        <structure type="chrome_scaled_image" name="IDR_MENU_RADIO_EMPTY" file="common/menu_radio_empty.png" />
        <structure type="chrome_scaled_image" name="IDR_MENU_RADIO_SELECTED" file="common/menu_radio_selected.png" />
        <structure type="chrome_scaled_image" name="IDR_SLIDER_ACTIVE_LEFT" file="slider_left_active.png" />
        <structure type="chrome_scaled_image" name="IDR_SLIDER_ACTIVE_RIGHT" file="slider_right_active.png" />
        <structure type="chrome_scaled_image" name="IDR_SLIDER_ACTIVE_CENTER" file="slider_center_active.png" />
        <structure type="chrome_scaled_image" name="IDR_SLIDER_DISABLED_LEFT" file="slider_left_disabled.png" />
        <structure type="chrome_scaled_image" name="IDR_SLIDER_DISABLED_RIGHT" file="slider_right_disabled.png" />
        <structure type="chrome_scaled_image" name="IDR_SLIDER_DISABLED_CENTER" file="slider_center_disabled.png" />
        <structure type="chrome_scaled_image" name="IDR_SLIDER_PRESSED_LEFT" file="slider_left_pressed.png" />
        <structure type="chrome_scaled_image" name="IDR_SLIDER_PRESSED_RIGHT" file="slider_right_pressed.png" />
        <structure type="chrome_scaled_image" name="IDR_SLIDER_PRESSED_CENTER" file="slider_center_pressed.png" />
        <structure type="chrome_scaled_image" name="IDR_SLIDER_ACTIVE_THUMB" file="slider_thumb.png" />
        <structure type="chrome_scaled_image" name="IDR_SLIDER_DISABLED_THUMB" file="slider_thumb_disabled.png" />
      </if>
      <structure type="chrome_scaled_image" name="IDR_MENU_DROPARROW" file="cros/menu_droparrow.png" />
      <structure type="chrome_scaled_image" name="IDR_MESSAGE_CLOSE" file="common/message_close.png" />
      <if expr="desktop_linux">
        <structure type="chrome_scaled_image" name="IDR_MINIMIZE" file="linux/linux_minimize.png" />
        <structure type="chrome_scaled_image" name="IDR_MINIMIZE_H" file="linux/linux_minimize_hover.png" />
        <structure type="chrome_scaled_image" name="IDR_MINIMIZE_P" file="linux/linux_minimize_pressed.png" />
      </if>
      <if expr="not desktop_linux and toolkit_views">
        <structure type="chrome_scaled_image" name="IDR_MINIMIZE" file="minimize.png" />
        <structure type="chrome_scaled_image" name="IDR_MINIMIZE_H" file="minimize_hover.png" />
        <structure type="chrome_scaled_image" name="IDR_MINIMIZE_P" file="minimize_pressed.png" />
      </if>
      <if expr="toolkit_views or is_macosx or is_ios">
        <structure type="chrome_scaled_image" name="IDR_NOTIFICATION_ARROW" file="common/notification_arrow.png"/>
        <structure type="chrome_scaled_image" name="IDR_NOTIFICATION_ARROW_HOVER" file="common/notification_arrow_hover.png"/>
        <structure type="chrome_scaled_image" name="IDR_NOTIFICATION_ARROW_PRESSED" file="common/notification_arrow_pressed.png"/>
        <structure type="chrome_scaled_image" name="IDR_NOTIFICATION_ADVANCED_SETTINGS" file="common/notification_advanced_settings.png"/>
        <structure type="chrome_scaled_image" name="IDR_NOTIFICATION_ADVANCED_SETTINGS_HOVER" file="common/notification_advanced_settings_hover.png"/>
        <structure type="chrome_scaled_image" name="IDR_NOTIFICATION_ADVANCED_SETTINGS_PRESSED" file="common/notification_advanced_settings_pressed.png"/>
        <structure type="chrome_scaled_image" name="IDR_NOTIFICATION_CLEAR_ALL" file="common/notification_clear_all.png"/>
        <structure type="chrome_scaled_image" name="IDR_NOTIFICATION_CLEAR_ALL_DISABLED" file="common/notification_clear_all_disabled.png"/>
        <structure type="chrome_scaled_image" name="IDR_NOTIFICATION_CLEAR_ALL_HOVER" file="common/notification_clear_all_hover.png"/>
        <structure type="chrome_scaled_image" name="IDR_NOTIFICATION_CLEAR_ALL_PRESSED" file="common/notification_clear_all_pressed.png"/>
        <if expr="is_win">
          <structure type="chrome_scaled_image" name="IDR_NOTIFICATION_CLOSE" file="win/notification_close.png"/>
          <structure type="chrome_scaled_image" name="IDR_NOTIFICATION_CLOSE_HOVER" file="win/notification_close_hover.png"/>
          <structure type="chrome_scaled_image" name="IDR_NOTIFICATION_CLOSE_PRESSED" file="win/notification_close_pressed.png"/>
        </if>
        <if expr="not is_win">
          <structure type="chrome_scaled_image" name="IDR_NOTIFICATION_CLOSE" file="common/notification_close.png"/>
          <structure type="chrome_scaled_image" name="IDR_NOTIFICATION_CLOSE_HOVER" file="common/notification_close_hover.png"/>
          <structure type="chrome_scaled_image" name="IDR_NOTIFICATION_CLOSE_PRESSED" file="common/notification_close_pressed.png"/>
        </if>
        <if expr="desktop_linux and use_aura">
          <structure type="chrome_scaled_image" name="IDR_NOTIFICATION_BUBBLE_CLOSE" file="common/notification_bubble_close.png"/>
          <structure type="chrome_scaled_image" name="IDR_NOTIFICATION_BUBBLE_CLOSE_HOVER" file="common/notification_bubble_close_hover.png"/>
          <structure type="chrome_scaled_image" name="IDR_NOTIFICATION_BUBBLE_CLOSE_PRESSED" file="common/notification_bubble_close_pressed.png"/>
        </if>
        <structure type="chrome_scaled_image" name="IDR_NOTIFICATION_DO_NOT_DISTURB" file="common/notification_do_not_disturb.png"/>
        <structure type="chrome_scaled_image" name="IDR_NOTIFICATION_DO_NOT_DISTURB_HOVER" file="common/notification_do_not_disturb_hover.png"/>
        <structure type="chrome_scaled_image" name="IDR_NOTIFICATION_DO_NOT_DISTURB_PRESSED" file="common/notification_do_not_disturb_pressed.png"/>
        <structure type="chrome_scaled_image" name="IDR_NOTIFICATION_SETTINGS" file="common/notification_settings.png"/>
        <structure type="chrome_scaled_image" name="IDR_NOTIFICATION_SETTINGS_HOVER" file="common/notification_settings_hover.png"/>
        <structure type="chrome_scaled_image" name="IDR_NOTIFICATION_SETTINGS_PRESSED" file="common/notification_settings_pressed.png"/>
      </if>
      <!-- TODO(calamity): The 1x local ntp resources require a proper version.
           See crbug.com/363519. -->
      <structure type="chrome_scaled_image" name="IDR_LOCAL_NTP_IMAGES_LOGO_PNG" file="common/ntp_google_logo.png" />
      <structure type="chrome_scaled_image" name="IDR_LOCAL_NTP_IMAGES_WHITE_LOGO_PNG" file="common/ntp_white_google_logo.png" />
      <if expr="not is_android and not is_ios">
        <structure type="chrome_scaled_image" name="IDR_NTP_DEFAULT_FAVICON" file="common/ntp_default_favicon.png" />
      </if>
      <if expr="not is_android and not is_ios">
        <structure type="chrome_scaled_image" name="IDR_OOBE_ACTION_BOX_BUTTON_HOVER" file="cros/action_box_button_hover.png" />
        <structure type="chrome_scaled_image" name="IDR_OOBE_ACTION_BOX_BUTTON_NORMAL" file="cros/action_box_button_normal.png" />
        <structure type="chrome_scaled_image" name="IDR_OOBE_ACTION_BOX_BUTTON_PRESSED" file="cros/action_box_button_pressed.png" />
      </if>
      <if expr="toolkit_views">
        <structure type="chrome_scaled_image" name="IDR_PANEL_TOP_LEFT_CORNER" file="panel_top_left_corner.png" />
        <structure type="chrome_scaled_image" name="IDR_PANEL_TOP_RIGHT_CORNER" file="panel_top_right_corner.png" />
        <structure type="chrome_scaled_image" name="IDR_PANEL_BOTTOM_LEFT_CORNER" file="panel_bottom_left_corner.png" />
        <structure type="chrome_scaled_image" name="IDR_PANEL_BOTTOM_RIGHT_CORNER" file="panel_bottom_right_corner.png" />
      </if>
      <if expr="use_aura or toolkit_views or (is_posix and not is_macosx and not is_ios)">
        <structure type="chrome_scaled_image" name="IDR_PROGRESS_BAR" file="linux/linux-progress-bar.png" />
        <structure type="chrome_scaled_image" name="IDR_PROGRESS_BORDER_LEFT" file="linux/linux-progress-border-left.png" />
        <structure type="chrome_scaled_image" name="IDR_PROGRESS_BORDER_RIGHT" file="linux/linux-progress-border-right.png" />
        <structure type="chrome_scaled_image" name="IDR_PROGRESS_VALUE" file="linux/linux-progress-value.png" />
      </if>
      <if expr="toolkit_views">
        <structure type="chrome_scaled_image" name="IDR_RADIO" file="common/radio.png" />
        <structure type="chrome_scaled_image" name="IDR_RADIO_CHECKED" file="common/radio_checked.png" />
        <structure type="chrome_scaled_image" name="IDR_RADIO_CHECKED_DISABLED" file="common/radio_checked_inactive.png" />
        <structure type="chrome_scaled_image" name="IDR_RADIO_CHECKED_HOVER" file="common/radio_checked_hover.png" />
        <structure type="chrome_scaled_image" name="IDR_RADIO_CHECKED_PRESSED" file="common/radio_checked_pressed.png" />
        <structure type="chrome_scaled_image" name="IDR_RADIO_DISABLED" file="common/radio_inactive.png" />
        <structure type="chrome_scaled_image" name="IDR_RADIO_FOCUSED" file="common/radio_focused.png" />
        <structure type="chrome_scaled_image" name="IDR_RADIO_FOCUSED_CHECKED" file="common/radio_focused_checked.png" />
        <structure type="chrome_scaled_image" name="IDR_RADIO_FOCUSED_CHECKED_HOVER" file="common/radio_focused_checked_hover.png" />
        <structure type="chrome_scaled_image" name="IDR_RADIO_FOCUSED_CHECKED_PRESSED" file="common/radio_focused_checked_pressed.png" />
        <structure type="chrome_scaled_image" name="IDR_RADIO_FOCUSED_HOVER" file="common/radio_focused_hover.png" />
        <structure type="chrome_scaled_image" name="IDR_RADIO_FOCUSED_PRESSED" file="common/radio_focused_pressed.png" />
        <structure type="chrome_scaled_image" name="IDR_RADIO_HOVER" file="common/radio_hover.png" />
        <structure type="chrome_scaled_image" name="IDR_RADIO_PRESSED" file="common/radio_pressed.png" />
      </if>
      <if expr="desktop_linux">
        <structure type="chrome_scaled_image" name="IDR_RESTORE" file="linux/linux_restore.png" />
        <structure type="chrome_scaled_image" name="IDR_RESTORE_H" file="linux/linux_restore_hover.png" />
        <structure type="chrome_scaled_image" name="IDR_RESTORE_P" file="linux/linux_restore_pressed.png" />
      </if>
      <if expr="not desktop_linux and toolkit_views">
        <structure type="chrome_scaled_image" name="IDR_RESTORE" file="restore.png" />
        <structure type="chrome_scaled_image" name="IDR_RESTORE_H" file="restore_hover.png" />
        <structure type="chrome_scaled_image" name="IDR_RESTORE_P" file="restore_pressed.png" />
      </if>
      <if expr="use_aura">
        <structure type="chrome_scaled_image" name="IDR_SCROLLBAR_ARROW_BUTTON_BASE_HOVER_BOTTOM" file="common/aura_scrollbar_arrow_button_base_hover_bottom.png" />
        <structure type="chrome_scaled_image" name="IDR_SCROLLBAR_ARROW_BUTTON_BASE_HOVER_BOTTOM_LEFT" file="common/aura_scrollbar_arrow_button_base_hover_bottom_left.png" />
        <structure type="chrome_scaled_image" name="IDR_SCROLLBAR_ARROW_BUTTON_BASE_HOVER_BOTTOM_RIGHT" file="common/aura_scrollbar_arrow_button_base_hover_bottom_right.png" />
        <structure type="chrome_scaled_image" name="IDR_SCROLLBAR_ARROW_BUTTON_BASE_HOVER_CENTER" file="common/aura_scrollbar_arrow_button_base_hover_center.png" />
        <structure type="chrome_scaled_image" name="IDR_SCROLLBAR_ARROW_BUTTON_BASE_HOVER_LEFT" file="common/aura_scrollbar_arrow_button_base_hover_left.png" />
        <structure type="chrome_scaled_image" name="IDR_SCROLLBAR_ARROW_BUTTON_BASE_HOVER_RIGHT" file="common/aura_scrollbar_arrow_button_base_hover_right.png" />
        <structure type="chrome_scaled_image" name="IDR_SCROLLBAR_ARROW_BUTTON_BASE_HOVER_TOP" file="common/aura_scrollbar_arrow_button_base_hover_top.png" />
        <structure type="chrome_scaled_image" name="IDR_SCROLLBAR_ARROW_BUTTON_BASE_HOVER_TOP_LEFT" file="common/aura_scrollbar_arrow_button_base_hover_top_left.png" />
        <structure type="chrome_scaled_image" name="IDR_SCROLLBAR_ARROW_BUTTON_BASE_HOVER_TOP_RIGHT" file="common/aura_scrollbar_arrow_button_base_hover_top_right.png" />
        <structure type="chrome_scaled_image" name="IDR_SCROLLBAR_ARROW_BUTTON_BASE_NORMAL_BOTTOM" file="common/aura_scrollbar_arrow_button_base_normal_bottom.png" />
        <structure type="chrome_scaled_image" name="IDR_SCROLLBAR_ARROW_BUTTON_BASE_NORMAL_BOTTOM_LEFT" file="common/aura_scrollbar_arrow_button_base_normal_bottom_left.png" />
        <structure type="chrome_scaled_image" name="IDR_SCROLLBAR_ARROW_BUTTON_BASE_NORMAL_BOTTOM_RIGHT" file="common/aura_scrollbar_arrow_button_base_normal_bottom_right.png" />
        <structure type="chrome_scaled_image" name="IDR_SCROLLBAR_ARROW_BUTTON_BASE_NORMAL_CENTER" file="common/aura_scrollbar_arrow_button_base_normal_center.png" />
        <structure type="chrome_scaled_image" name="IDR_SCROLLBAR_ARROW_BUTTON_BASE_NORMAL_LEFT" file="common/aura_scrollbar_arrow_button_base_normal_left.png" />
        <structure type="chrome_scaled_image" name="IDR_SCROLLBAR_ARROW_BUTTON_BASE_NORMAL_RIGHT" file="common/aura_scrollbar_arrow_button_base_normal_right.png" />
        <structure type="chrome_scaled_image" name="IDR_SCROLLBAR_ARROW_BUTTON_BASE_NORMAL_TOP" file="common/aura_scrollbar_arrow_button_base_normal_top.png" />
        <structure type="chrome_scaled_image" name="IDR_SCROLLBAR_ARROW_BUTTON_BASE_NORMAL_TOP_LEFT" file="common/aura_scrollbar_arrow_button_base_normal_top_left.png" />
        <structure type="chrome_scaled_image" name="IDR_SCROLLBAR_ARROW_BUTTON_BASE_NORMAL_TOP_RIGHT" file="common/aura_scrollbar_arrow_button_base_normal_top_right.png" />
        <structure type="chrome_scaled_image" name="IDR_SCROLLBAR_ARROW_BUTTON_BASE_PRESSED_BOTTOM" file="common/aura_scrollbar_arrow_button_base_pressed_bottom.png" />
        <structure type="chrome_scaled_image" name="IDR_SCROLLBAR_ARROW_BUTTON_BASE_PRESSED_BOTTOM_LEFT" file="common/aura_scrollbar_arrow_button_base_pressed_bottom_left.png" />
        <structure type="chrome_scaled_image" name="IDR_SCROLLBAR_ARROW_BUTTON_BASE_PRESSED_BOTTOM_RIGHT" file="common/aura_scrollbar_arrow_button_base_pressed_bottom_right.png" />
        <structure type="chrome_scaled_image" name="IDR_SCROLLBAR_ARROW_BUTTON_BASE_PRESSED_CENTER" file="common/aura_scrollbar_arrow_button_base_pressed_center.png" />
        <structure type="chrome_scaled_image" name="IDR_SCROLLBAR_ARROW_BUTTON_BASE_PRESSED_LEFT" file="common/aura_scrollbar_arrow_button_base_pressed_left.png" />
        <structure type="chrome_scaled_image" name="IDR_SCROLLBAR_ARROW_BUTTON_BASE_PRESSED_RIGHT" file="common/aura_scrollbar_arrow_button_base_pressed_right.png" />
        <structure type="chrome_scaled_image" name="IDR_SCROLLBAR_ARROW_BUTTON_BASE_PRESSED_TOP" file="common/aura_scrollbar_arrow_button_base_pressed_top.png" />
        <structure type="chrome_scaled_image" name="IDR_SCROLLBAR_ARROW_BUTTON_BASE_PRESSED_TOP_LEFT" file="common/aura_scrollbar_arrow_button_base_pressed_top_left.png" />
        <structure type="chrome_scaled_image" name="IDR_SCROLLBAR_ARROW_BUTTON_BASE_PRESSED_TOP_RIGHT" file="common/aura_scrollbar_arrow_button_base_pressed_top_right.png" />
        <structure type="chrome_scaled_image" name="IDR_SCROLLBAR_BASE_BOTTOM" file="common/aura_scrollbar_base_bottom.png" />
        <structure type="chrome_scaled_image" name="IDR_SCROLLBAR_BASE_BOTTOM_LEFT" file="common/aura_scrollbar_base_bottom_left.png" />
        <structure type="chrome_scaled_image" name="IDR_SCROLLBAR_BASE_BOTTOM_RIGHT" file="common/aura_scrollbar_base_bottom_right.png" />
        <structure type="chrome_scaled_image" name="IDR_SCROLLBAR_BASE_CENTER" file="common/aura_scrollbar_base_center.png" />
        <structure type="chrome_scaled_image" name="IDR_SCROLLBAR_BASE_LEFT" file="common/aura_scrollbar_base_left.png" />
        <structure type="chrome_scaled_image" name="IDR_SCROLLBAR_BASE_RIGHT" file="common/aura_scrollbar_base_right.png" />
        <structure type="chrome_scaled_image" name="IDR_SCROLLBAR_BASE_TOP" file="common/aura_scrollbar_base_top.png" />
        <structure type="chrome_scaled_image" name="IDR_SCROLLBAR_BASE_TOP_LEFT" file="common/aura_scrollbar_base_top_left.png" />
        <structure type="chrome_scaled_image" name="IDR_SCROLLBAR_BASE_TOP_RIGHT" file="common/aura_scrollbar_base_top_right.png" />
        <structure type="chrome_scaled_image" name="IDR_SCROLLBAR_OVERLAY_THUMB_FILL_BOTTOM" file="common/aura_scrollbar_overlay_thumb_fill_bottom.png" />
        <structure type="chrome_scaled_image" name="IDR_SCROLLBAR_OVERLAY_THUMB_FILL_BOTTOM_LEFT" file="common/aura_scrollbar_overlay_thumb_fill_bottom_left.png" />
        <structure type="chrome_scaled_image" name="IDR_SCROLLBAR_OVERLAY_THUMB_FILL_BOTTOM_RIGHT" file="common/aura_scrollbar_overlay_thumb_fill_bottom_right.png" />
        <structure type="chrome_scaled_image" name="IDR_SCROLLBAR_OVERLAY_THUMB_FILL_CENTER" file="common/aura_scrollbar_overlay_thumb_fill_center.png" />
        <structure type="chrome_scaled_image" name="IDR_SCROLLBAR_OVERLAY_THUMB_FILL_LEFT" file="common/aura_scrollbar_overlay_thumb_fill_left.png" />
        <structure type="chrome_scaled_image" name="IDR_SCROLLBAR_OVERLAY_THUMB_FILL_RIGHT" file="common/aura_scrollbar_overlay_thumb_fill_right.png" />
        <structure type="chrome_scaled_image" name="IDR_SCROLLBAR_OVERLAY_THUMB_FILL_TOP" file="common/aura_scrollbar_overlay_thumb_fill_top.png" />
        <structure type="chrome_scaled_image" name="IDR_SCROLLBAR_OVERLAY_THUMB_FILL_TOP_LEFT" file="common/aura_scrollbar_overlay_thumb_fill_top_left.png" />
        <structure type="chrome_scaled_image" name="IDR_SCROLLBAR_OVERLAY_THUMB_FILL_TOP_RIGHT" file="common/aura_scrollbar_overlay_thumb_fill_top_right.png" />
        <structure type="chrome_scaled_image" name="IDR_SCROLLBAR_OVERLAY_THUMB_STROKE_BOTTOM" file="common/aura_scrollbar_overlay_thumb_stroke_bottom.png" />
        <structure type="chrome_scaled_image" name="IDR_SCROLLBAR_OVERLAY_THUMB_STROKE_BOTTOM_LEFT" file="common/aura_scrollbar_overlay_thumb_stroke_bottom_left.png" />
        <structure type="chrome_scaled_image" name="IDR_SCROLLBAR_OVERLAY_THUMB_STROKE_BOTTOM_RIGHT" file="common/aura_scrollbar_overlay_thumb_stroke_bottom_right.png" />
        <structure type="chrome_scaled_image" name="IDR_SCROLLBAR_OVERLAY_THUMB_STROKE_LEFT" file="common/aura_scrollbar_overlay_thumb_stroke_left.png" />
        <structure type="chrome_scaled_image" name="IDR_SCROLLBAR_OVERLAY_THUMB_STROKE_RIGHT" file="common/aura_scrollbar_overlay_thumb_stroke_right.png" />
        <structure type="chrome_scaled_image" name="IDR_SCROLLBAR_OVERLAY_THUMB_STROKE_TOP" file="common/aura_scrollbar_overlay_thumb_stroke_top.png" />
        <structure type="chrome_scaled_image" name="IDR_SCROLLBAR_OVERLAY_THUMB_STROKE_TOP_LEFT" file="common/aura_scrollbar_overlay_thumb_stroke_top_left.png" />
        <structure type="chrome_scaled_image" name="IDR_SCROLLBAR_OVERLAY_THUMB_STROKE_TOP_RIGHT" file="common/aura_scrollbar_overlay_thumb_stroke_top_right.png" />
        <structure type="chrome_scaled_image" name="IDR_SCROLLBAR_THUMB_BASE_HOVER_BOTTOM" file="common/aura_scrollbar_thumb_base_hover_bottom.png" />
        <structure type="chrome_scaled_image" name="IDR_SCROLLBAR_THUMB_BASE_HOVER_BOTTOM_LEFT" file="common/aura_scrollbar_thumb_base_hover_bottom_left.png" />
        <structure type="chrome_scaled_image" name="IDR_SCROLLBAR_THUMB_BASE_HOVER_BOTTOM_RIGHT" file="common/aura_scrollbar_thumb_base_hover_bottom_right.png" />
        <structure type="chrome_scaled_image" name="IDR_SCROLLBAR_THUMB_BASE_HOVER_CENTER" file="common/aura_scrollbar_thumb_base_hover_center.png" />
        <structure type="chrome_scaled_image" name="IDR_SCROLLBAR_THUMB_BASE_HOVER_LEFT" file="common/aura_scrollbar_thumb_base_hover_left.png" />
        <structure type="chrome_scaled_image" name="IDR_SCROLLBAR_THUMB_BASE_HOVER_RIGHT" file="common/aura_scrollbar_thumb_base_hover_right.png" />
        <structure type="chrome_scaled_image" name="IDR_SCROLLBAR_THUMB_BASE_HOVER_TOP" file="common/aura_scrollbar_thumb_base_hover_top.png" />
        <structure type="chrome_scaled_image" name="IDR_SCROLLBAR_THUMB_BASE_HOVER_TOP_LEFT" file="common/aura_scrollbar_thumb_base_hover_top_left.png" />
        <structure type="chrome_scaled_image" name="IDR_SCROLLBAR_THUMB_BASE_HOVER_TOP_RIGHT" file="common/aura_scrollbar_thumb_base_hover_top_right.png" />
        <structure type="chrome_scaled_image" name="IDR_SCROLLBAR_THUMB_BASE_NORMAL_BOTTOM" file="common/aura_scrollbar_thumb_base_normal_bottom.png" />
        <structure type="chrome_scaled_image" name="IDR_SCROLLBAR_THUMB_BASE_NORMAL_BOTTOM_LEFT" file="common/aura_scrollbar_thumb_base_normal_bottom_left.png" />
        <structure type="chrome_scaled_image" name="IDR_SCROLLBAR_THUMB_BASE_NORMAL_BOTTOM_RIGHT" file="common/aura_scrollbar_thumb_base_normal_bottom_right.png" />
        <structure type="chrome_scaled_image" name="IDR_SCROLLBAR_THUMB_BASE_NORMAL_CENTER" file="common/aura_scrollbar_thumb_base_normal_center.png" />
        <structure type="chrome_scaled_image" name="IDR_SCROLLBAR_THUMB_BASE_NORMAL_LEFT" file="common/aura_scrollbar_thumb_base_normal_left.png" />
        <structure type="chrome_scaled_image" name="IDR_SCROLLBAR_THUMB_BASE_NORMAL_RIGHT" file="common/aura_scrollbar_thumb_base_normal_right.png" />
        <structure type="chrome_scaled_image" name="IDR_SCROLLBAR_THUMB_BASE_NORMAL_TOP" file="common/aura_scrollbar_thumb_base_normal_top.png" />
        <structure type="chrome_scaled_image" name="IDR_SCROLLBAR_THUMB_BASE_NORMAL_TOP_LEFT" file="common/aura_scrollbar_thumb_base_normal_top_left.png" />
        <structure type="chrome_scaled_image" name="IDR_SCROLLBAR_THUMB_BASE_NORMAL_TOP_RIGHT" file="common/aura_scrollbar_thumb_base_normal_top_right.png" />
        <structure type="chrome_scaled_image" name="IDR_SCROLLBAR_THUMB_BASE_PRESSED_BOTTOM" file="common/aura_scrollbar_thumb_base_pressed_bottom.png" />
        <structure type="chrome_scaled_image" name="IDR_SCROLLBAR_THUMB_BASE_PRESSED_BOTTOM_LEFT" file="common/aura_scrollbar_thumb_base_pressed_bottom_left.png" />
        <structure type="chrome_scaled_image" name="IDR_SCROLLBAR_THUMB_BASE_PRESSED_BOTTOM_RIGHT" file="common/aura_scrollbar_thumb_base_pressed_bottom_right.png" />
        <structure type="chrome_scaled_image" name="IDR_SCROLLBAR_THUMB_BASE_PRESSED_CENTER" file="common/aura_scrollbar_thumb_base_pressed_center.png" />
        <structure type="chrome_scaled_image" name="IDR_SCROLLBAR_THUMB_BASE_PRESSED_LEFT" file="common/aura_scrollbar_thumb_base_pressed_left.png" />
        <structure type="chrome_scaled_image" name="IDR_SCROLLBAR_THUMB_BASE_PRESSED_RIGHT" file="common/aura_scrollbar_thumb_base_pressed_right.png" />
        <structure type="chrome_scaled_image" name="IDR_SCROLLBAR_THUMB_BASE_PRESSED_TOP" file="common/aura_scrollbar_thumb_base_pressed_top.png" />
        <structure type="chrome_scaled_image" name="IDR_SCROLLBAR_THUMB_BASE_PRESSED_TOP_LEFT" file="common/aura_scrollbar_thumb_base_pressed_top_left.png" />
        <structure type="chrome_scaled_image" name="IDR_SCROLLBAR_THUMB_BASE_PRESSED_TOP_RIGHT" file="common/aura_scrollbar_thumb_base_pressed_top_right.png" />
        <structure type="chrome_scaled_image" name="IDR_TEXT_SELECTION_HANDLE_CENTER" file="common/text_selection_handle_center.png" />
        <structure type="chrome_scaled_image" name="IDR_TEXT_SELECTION_HANDLE_LEFT" file="common/text_selection_handle_left.png" />
        <structure type="chrome_scaled_image" name="IDR_TEXT_SELECTION_HANDLE_RIGHT" file="common/text_selection_handle_right.png" />
      </if>
      <if expr="toolkit_views">
        <structure type="chrome_scaled_image" name="IDR_TEXTBUTTON_HOVER_BOTTOM" file="common/textbutton_hover_bottom.png" />
        <structure type="chrome_scaled_image" name="IDR_TEXTBUTTON_HOVER_BOTTOM_LEFT" file="common/textbutton_hover_bottom_left.png" />
        <structure type="chrome_scaled_image" name="IDR_TEXTBUTTON_HOVER_BOTTOM_RIGHT" file="common/textbutton_hover_bottom_right.png" />
        <structure type="chrome_scaled_image" name="IDR_TEXTBUTTON_HOVER_CENTER" file="common/textbutton_hover_center.png" />
        <structure type="chrome_scaled_image" name="IDR_TEXTBUTTON_HOVER_LEFT" file="common/textbutton_hover_left.png" />
        <structure type="chrome_scaled_image" name="IDR_TEXTBUTTON_HOVER_RIGHT" file="common/textbutton_hover_right.png" />
        <structure type="chrome_scaled_image" name="IDR_TEXTBUTTON_HOVER_TOP" file="common/textbutton_hover_top.png" />
        <structure type="chrome_scaled_image" name="IDR_TEXTBUTTON_HOVER_TOP_LEFT" file="common/textbutton_hover_top_left.png" />
        <structure type="chrome_scaled_image" name="IDR_TEXTBUTTON_HOVER_TOP_RIGHT" file="common/textbutton_hover_top_right.png" />
        <structure type="chrome_scaled_image" name="IDR_TEXTBUTTON_PRESSED_BOTTOM" file="common/textbutton_pressed_bottom.png" />
        <structure type="chrome_scaled_image" name="IDR_TEXTBUTTON_PRESSED_BOTTOM_LEFT" file="common/textbutton_pressed_bottom_left.png" />
        <structure type="chrome_scaled_image" name="IDR_TEXTBUTTON_PRESSED_BOTTOM_RIGHT" file="common/textbutton_pressed_bottom_right.png" />
        <structure type="chrome_scaled_image" name="IDR_TEXTBUTTON_PRESSED_CENTER" file="common/textbutton_pressed_center.png" />
        <structure type="chrome_scaled_image" name="IDR_TEXTBUTTON_PRESSED_LEFT" file="common/textbutton_pressed_left.png" />
        <structure type="chrome_scaled_image" name="IDR_TEXTBUTTON_PRESSED_RIGHT" file="common/textbutton_pressed_right.png" />
        <structure type="chrome_scaled_image" name="IDR_TEXTBUTTON_PRESSED_TOP" file="common/textbutton_pressed_top.png" />
        <structure type="chrome_scaled_image" name="IDR_TEXTBUTTON_PRESSED_TOP_LEFT" file="common/textbutton_pressed_top_left.png" />
        <structure type="chrome_scaled_image" name="IDR_TEXTBUTTON_PRESSED_TOP_RIGHT" file="common/textbutton_pressed_top_right.png" />
        <structure type="chrome_scaled_image" name="IDR_TEXTBUTTON_RAISED_BOTTOM" file="common/textbutton_raised_bottom.png" />
        <structure type="chrome_scaled_image" name="IDR_TEXTBUTTON_RAISED_BOTTOM_LEFT" file="common/textbutton_raised_bottom_left.png" />
        <structure type="chrome_scaled_image" name="IDR_TEXTBUTTON_RAISED_BOTTOM_RIGHT" file="common/textbutton_raised_bottom_right.png" />
        <structure type="chrome_scaled_image" name="IDR_TEXTBUTTON_RAISED_CENTER" file="common/textbutton_raised_center.png" />
        <structure type="chrome_scaled_image" name="IDR_TEXTBUTTON_RAISED_LEFT" file="common/textbutton_raised_left.png" />
        <structure type="chrome_scaled_image" name="IDR_TEXTBUTTON_RAISED_RIGHT" file="common/textbutton_raised_right.png" />
        <structure type="chrome_scaled_image" name="IDR_TEXTBUTTON_RAISED_TOP" file="common/textbutton_raised_top.png" />
        <structure type="chrome_scaled_image" name="IDR_TEXTBUTTON_RAISED_TOP_LEFT" file="common/textbutton_raised_top_left.png" />
        <structure type="chrome_scaled_image" name="IDR_TEXTBUTTON_RAISED_TOP_RIGHT" file="common/textbutton_raised_top_right.png" />
      </if>
      <structure type="chrome_scaled_image" name="IDR_THROBBER" file="throbber.png" />
      <if expr="toolkit_views">
        <structure type="chrome_scaled_image" name="IDR_TOUCH_DRAG_TIP_COPY" file="common/drag_tip_copy.png" />
        <structure type="chrome_scaled_image" name="IDR_TOUCH_DRAG_TIP_MOVE" file="common/drag_tip_move.png" />
        <structure type="chrome_scaled_image" name="IDR_TOUCH_DRAG_TIP_LINK" file="common/drag_tip_link.png" />
        <structure type="chrome_scaled_image" name="IDR_TOUCH_DRAG_TIP_NODROP" file="common/drag_tip_nodrop.png" />
      </if>
      <if expr="is_macosx or is_ios">
        <structure type="chrome_scaled_image" name="IDR_DARK_TRAY_ATTENTION" file="mac/notification_dark_tray_attention.png"/>
        <structure type="chrome_scaled_image" name="IDR_DARK_TRAY_PRESSED" file="mac/notification_dark_tray_pressed.png"/>
        <structure type="chrome_scaled_image" name="IDR_DARK_TRAY_DO_NOT_DISTURB_ATTENTION" file="mac/notification_dark_tray_do_not_disturb_attention.png"/>
        <structure type="chrome_scaled_image" name="IDR_DARK_TRAY_DO_NOT_DISTURB_PRESSED" file="mac/notification_dark_tray_do_not_disturb_pressed.png"/>
        <structure type="chrome_scaled_image" name="IDR_DARK_TRAY_DO_NOT_DISTURB_EMPTY" file="mac/notification_tray_do_not_disturb_empty.png"/>
        <structure type="chrome_scaled_image" name="IDR_DARK_TRAY_EMPTY" file="mac/notification_dark_tray_empty.png"/>
        <structure type="chrome_scaled_image" name="IDR_TRAY_ATTENTION" file="mac/notification_tray_attention.png"/>
        <structure type="chrome_scaled_image" name="IDR_TRAY_ATTENTION_PRESSED" file="mac/notification_tray_attention_pressed.png"/>
        <structure type="chrome_scaled_image" name="IDR_TRAY_DO_NOT_DISTURB_ATTENTION" file="mac/notification_tray_do_not_disturb_attention.png"/>
        <structure type="chrome_scaled_image" name="IDR_TRAY_DO_NOT_DISTURB_ATTENTION_PRESSED" file="mac/notification_tray_do_not_disturb_attention_pressed.png"/>
        <structure type="chrome_scaled_image" name="IDR_TRAY_DO_NOT_DISTURB_EMPTY" file="mac/notification_tray_do_not_disturb_empty.png"/>
        <structure type="chrome_scaled_image" name="IDR_TRAY_DO_NOT_DISTURB_EMPTY_PRESSED" file="mac/notification_tray_do_not_disturb_empty_pressed.png"/>
        <structure type="chrome_scaled_image" name="IDR_TRAY_EMPTY" file="mac/notification_tray_empty.png"/>
        <structure type="chrome_scaled_image" name="IDR_TRAY_EMPTY_PRESSED" file="mac/notification_tray_empty_pressed.png"/>
      </if>
      <if expr="toolkit_views">
        <structure type="chrome_scaled_image" name="IDR_WINDOW_BOTTOM_CENTER" file="common/window_bottom_center.png" />
        <structure type="chrome_scaled_image" name="IDR_WINDOW_BOTTOM_LEFT_CORNER" file="common/window_bottom_left_corner.png" />
        <structure type="chrome_scaled_image" name="IDR_WINDOW_BOTTOM_RIGHT_CORNER" file="common/window_bottom_right_corner.png" />
        <structure type="chrome_scaled_image" name="IDR_WINDOW_LEFT_SIDE" file="common/window_left_side.png" />
        <structure type="chrome_scaled_image" name="IDR_WINDOW_RIGHT_SIDE" file="common/window_right_side.png" />
        <structure type="chrome_scaled_image" name="IDR_WINDOW_TOP_CENTER" file="common/window_top_center.png" />
        <structure type="chrome_scaled_image" name="IDR_WINDOW_TOP_LEFT_CORNER" file="common/window_top_left_corner.png" />
        <structure type="chrome_scaled_image" name="IDR_WINDOW_TOP_RIGHT_CORNER" file="common/window_top_right_corner.png" />
      </if>
      <if expr="toolkit_views">
        <structure type="chrome_scaled_image" name="IDR_WINDOW_BUBBLE_SHADOW_BIG_BOTTOM" file="common/window_bubble_shadow_big_bottom.png" />
        <structure type="chrome_scaled_image" name="IDR_WINDOW_BUBBLE_SHADOW_BIG_BOTTOM_LEFT" file="common/window_bubble_shadow_big_bottom_left.png" />
        <structure type="chrome_scaled_image" name="IDR_WINDOW_BUBBLE_SHADOW_BIG_BOTTOM_RIGHT" file="common/window_bubble_shadow_big_bottom_right.png" />
        <structure type="chrome_scaled_image" name="IDR_WINDOW_BUBBLE_SHADOW_BIG_LEFT" file="common/window_bubble_shadow_big_left.png" />
        <structure type="chrome_scaled_image" name="IDR_WINDOW_BUBBLE_SHADOW_BIG_RIGHT" file="common/window_bubble_shadow_big_right.png" />
        <structure type="chrome_scaled_image" name="IDR_WINDOW_BUBBLE_SHADOW_BIG_TOP" file="common/window_bubble_shadow_big_top.png" />
        <structure type="chrome_scaled_image" name="IDR_WINDOW_BUBBLE_SHADOW_BIG_TOP_LEFT" file="common/window_bubble_shadow_big_top_left.png" />
        <structure type="chrome_scaled_image" name="IDR_WINDOW_BUBBLE_SHADOW_BIG_TOP_RIGHT" file="common/window_bubble_shadow_big_top_right.png" />
        <structure type="chrome_scaled_image" name="IDR_WINDOW_BUBBLE_SHADOW_SPIKE_BIG_BOTTOM" file="common/window_bubble_shadow_spike_big_bottom.png" />
        <structure type="chrome_scaled_image" name="IDR_WINDOW_BUBBLE_SHADOW_SPIKE_BIG_LEFT" file="common/window_bubble_shadow_spike_big_left.png" />
        <structure type="chrome_scaled_image" name="IDR_WINDOW_BUBBLE_SHADOW_SPIKE_BIG_RIGHT" file="common/window_bubble_shadow_spike_big_right.png" />
        <structure type="chrome_scaled_image" name="IDR_WINDOW_BUBBLE_SHADOW_SPIKE_BIG_TOP" file="common/window_bubble_shadow_spike_big_top.png" />
        <structure type="chrome_scaled_image" name="IDR_WINDOW_BUBBLE_SHADOW_SMALL" file="common/window_bubble_shadow_small.png" />
        <structure type="chrome_scaled_image" name="IDR_WINDOW_BUBBLE_SHADOW_SMALL_BOTTOM" file="common/window_bubble_shadow_small_bottom.png" />
        <structure type="chrome_scaled_image" name="IDR_WINDOW_BUBBLE_SHADOW_SMALL_BOTTOM_LEFT" file="common/window_bubble_shadow_small_bottom_left.png" />
        <structure type="chrome_scaled_image" name="IDR_WINDOW_BUBBLE_SHADOW_SMALL_BOTTOM_RIGHT" file="common/window_bubble_shadow_small_bottom_right.png" />
        <structure type="chrome_scaled_image" name="IDR_WINDOW_BUBBLE_SHADOW_SMALL_LEFT" file="common/window_bubble_shadow_small_left.png" />
        <structure type="chrome_scaled_image" name="IDR_WINDOW_BUBBLE_SHADOW_SMALL_RIGHT" file="common/window_bubble_shadow_small_right.png" />
        <structure type="chrome_scaled_image" name="IDR_WINDOW_BUBBLE_SHADOW_SMALL_TOP" file="common/window_bubble_shadow_small_top.png" />
        <structure type="chrome_scaled_image" name="IDR_WINDOW_BUBBLE_SHADOW_SMALL_TOP_LEFT" file="common/window_bubble_shadow_small_top_left.png" />
        <structure type="chrome_scaled_image" name="IDR_WINDOW_BUBBLE_SHADOW_SMALL_TOP_RIGHT" file="common/window_bubble_shadow_small_top_right.png" />
        <structure type="chrome_scaled_image" name="IDR_WINDOW_BUBBLE_SHADOW_SPIKE_SMALL_BOTTOM" file="common/window_bubble_shadow_spike_small_bottom.png" />
        <structure type="chrome_scaled_image" name="IDR_WINDOW_BUBBLE_SHADOW_SPIKE_SMALL_LEFT" file="common/window_bubble_shadow_spike_small_left.png" />
        <structure type="chrome_scaled_image" name="IDR_WINDOW_BUBBLE_SHADOW_SPIKE_SMALL_RIGHT" file="common/window_bubble_shadow_spike_small_right.png" />
        <structure type="chrome_scaled_image" name="IDR_WINDOW_BUBBLE_SHADOW_SPIKE_SMALL_TOP" file="common/window_bubble_shadow_spike_small_top.png" />
      </if>
    </structures>
  </release>
</grit>
